
holozoa_s_chain1.treelist : 3267 trees
holozoa_s_chain2.treelist : 2235 trees

maxdiff     : 0.0957494
meandiff    : 0.00281742

bipartition list in : bpcomp.bplist
consensus in        : bpcomp.con.tre

name                effsize	rel_diff

loglik              31		0.179434
length              94		0.0025815
alpha               112		0.316432
Nmode               73		0.0696634
statent             63		0.231623
statalpha           28		0.11991
