module: loading 'phylobayes/1.3b-mpi'

model:
stick-breaking Dirichlet process mixture (cat)
exchangeabilities estimated from data (gtr)
discrete gamma distribution of rates across sites (4 categories)

read data from file : est.opisthokonta.phy
number of taxa  : 70
number of sites : 88384
number of states: 20

chain name : opisthokonta_chain2
run started

Got unknown event 17 ... continuing ...
Got unknown event 17 ... continuing ...
Got unknown event 17 ... continuing ...
Got unknown event 17 ... continuing ...
Got unknown event 17 ... continuing ...
Got unknown event 17 ... continuing ...
Got unknown event 17 ... continuing ...
Got unknown event 17 ... continuing ...
Got unknown event 17 ... continuing ...
Got unknown event 17 ... continuing ...
Got unknown event 17 ... continuing ...
Got unknown event 17 ... continuing ...
Got unknown event 17 ... continuing ...
Got unknown event 17 ... continuing ...
Got unknown event 17 ... continuing ...
Got unknown event 17 ... continuing ...
Got unknown event 17 ... continuing ...
Got unknown event 17 ... continuing ...
Got unknown event 17 ... continuing ...
Got unknown event 17 ... continuing ...
Got unknown event 17 ... continuing ...
Got unknown event 17 ... continuing ...
Got unknown event 17 ... continuing ...
Got unknown event 17 ... continuing ...
Got unknown event 17 ... continuing ...
Got unknown event 17 ... continuing ...
Got unknown event 17 ... continuing ...
Got unknown event 17 ... continuing ...
Got unknown event 17 ... continuing ...
Got unknown event 17 ... continuing ...
Got unknown event 17 ... continuing ...
Got unknown event 17 ... continuing ...
Got unknown event 17 ... continuing ...
Got unknown event 17 ... continuing ...
Got unknown event 17 ... continuing ...
Got unknown event 17 ... continuing ...
Got unknown event 17 ... continuing ...
Got unknown event 17 ... continuing ...
Got unknown event 17 ... continuing ...
Got unknown event 17 ... continuing ...
Got unknown event 17 ... continuing ...
Got unknown event 17 ... continuing ...
Got unknown event 17 ... continuing ...
Got unknown event 17 ... continuing ...
Got unknown event 17 ... continuing ...
Got unknown event 17 ... continuing ...
Got unknown event 17 ... continuing ...
Got unknown event 17 ... continuing ...
Got unknown event 17 ... continuing ...
Got unknown event 17 ... continuing ...
Got unknown event 17 ... continuing ...
Got unknown event 17 ... continuing ...
Got unknown event 17 ... continuing ...
Got unknown event 17 ... continuing ...
Got unknown event 17 ... continuing ...
Got unknown event 17 ... continuing ...
Got unknown event 17 ... continuing ...
Got unknown event 17 ... continuing ...
Got unknown event 17 ... continuing ...
Got unknown event 17 ... continuing ...
Got unknown event 17 ... continuing ...
Got unknown event 17 ... continuing ...
Got unknown event 17 ... continuing ...
Got unknown event 17 ... continuing ...
Got unknown event 17 ... continuing ...
Got unknown event 17 ... continuing ...
Got unknown event 17 ... continuing ...
Got unknown event 17 ... continuing ...
Got unknown event 17 ... continuing ...
Got unknown event 17 ... continuing ...
Got unknown event 17 ... continuing ...
Got unknown event 17 ... continuing ...
Got unknown event 17 ... continuing ...
Got unknown event 17 ... continuing ...
Got unknown event 17 ... continuing ...
Got unknown event 17 ... continuing ...
Got unknown event 17 ... continuing ...
Got unknown event 17 ... continuing ...
Got unknown event 17 ... continuing ...
Got unknown event 17 ... continuing ...
Got unknown event 17 ... continuing ...
Got unknown event 17 ... continuing ...
Got unknown event 17 ... continuing ...
Got unknown event 17 ... continuing ...
Got unknown event 17 ... continuing ...
Got unknown event 17 ... continuing ...
Got unknown event 17 ... continuing ...
Got unknown event 17 ... continuing ...
Got unknown event 17 ... continuing ...
Got unknown event 17 ... continuing ...
Got unknown event 17 ... continuing ...
Got unknown event 17 ... continuing ...
Got unknown event 17 ... continuing ...
Got unknown event 17 ... continuing ...
Got unknown event 17 ... continuing ...
Got unknown event 17 ... continuing ...
Got unknown event 17 ... continuing ...
Got unknown event 17 ... continuing ...
Got unknown event 17 ... continuing ...
Got unknown event 17 ... continuing ...
Got unknown event 17 ... continuing ...
Got unknown event 17 ... continuing ...
Got unknown event 17 ... continuing ...
Got unknown event 17 ... continuing ...
Got unknown event 17 ... continuing ...
Got unknown event 17 ... continuing ...
Got unknown event 17 ... continuing ...
Got unknown event 17 ... continuing ...
Got unknown event 17 ... continuing ...
Got unknown event 17 ... continuing ...
Got unknown event 17 ... continuing ...
Got unknown event 17 ... continuing ...
Got unknown event 17 ... continuing ...
Got unknown event 17 ... continuing ...
Got unknown event 17 ... continuing ...
Got unknown event 17 ... continuing ...
Got unknown event 17 ... continuing ...
Got unknown event 17 ... continuing ...
Got unknown event 17 ... continuing ...
Got unknown event 17 ... continuing ...
Got unknown event 17 ... continuing ...
Got unknown event 17 ... continuing ...
Got unknown event 17 ... continuing ...
Got unknown event 17 ... continuing ...
Got unknown event 17 ... continuing ...
Got unknown event 17 ... continuing ...
Got unknown event 17 ... continuing ...
Got unknown event 17 ... continuing ...
Got unknown event 17 ... continuing ...
Got unknown event 17 ... continuing ...
Got unknown event 17 ... continuing ...
Got unknown event 17 ... continuing ...
Got unknown event 17 ... continuing ...
Got unknown event 17 ... continuing ...
Got unknown event 17 ... continuing ...
Got unknown event 17 ... continuing ...
Got unknown event 17 ... continuing ...
Got unknown event 17 ... continuing ...
Got unknown event 17 ... continuing ...
Got unknown event 17 ... continuing ...
Got unknown event 17 ... continuing ...
Got unknown event 17 ... continuing ...
Got unknown event 17 ... continuing ...
Got unknown event 17 ... continuing ...
Got unknown event 17 ... continuing ...
Got unknown event 17 ... continuing ...
Got unknown event 17 ... continuing ...
Got unknown event 17 ... continuing ...
Got unknown event 17 ... continuing ...
Got unknown event 17 ... continuing ...
Got unknown event 17 ... continuing ...
Got unknown event 17 ... continuing ...
Got unknown event 17 ... continuing ...
Got unknown event 17 ... continuing ...
Got unknown event 17 ... continuing ...
Got unknown event 17 ... continuing ...
Got unknown event 17 ... continuing ...
Got unknown event 17 ... continuing ...
Got unknown event 17 ... continuing ...
Got unknown event 17 ... continuing ...
Got unknown event 17 ... continuing ...
Got unknown event 17 ... continuing ...
Got unknown event 17 ... continuing ...
Got unknown event 17 ... continuing ...
Got unknown event 17 ... continuing ...
Got unknown event 17 ... continuing ...
Got unknown event 17 ... continuing ...
Got unknown event 17 ... continuing ...
Got unknown event 17 ... continuing ...
Got unknown event 17 ... continuing ...
Got unknown event 17 ... continuing ...
Got unknown event 17 ... continuing ...
Got unknown event 17 ... continuing ...
Got unknown event 17 ... continuing ...
Got unknown event 17 ... continuing ...
Got unknown event 17 ... continuing ...
Got unknown event 17 ... continuing ...
Got unknown event 17 ... continuing ...
Got unknown event 17 ... continuing ...
Got unknown event 17 ... continuing ...
Got unknown event 17 ... continuing ...
Got unknown event 17 ... continuing ...
Got unknown event 17 ... continuing ...
Got unknown event 17 ... continuing ...
Got unknown event 17 ... continuing ...
Got unknown event 17 ... continuing ...
Got unknown event 17 ... continuing ...
Got unknown event 17 ... continuing ...
Got unknown event 17 ... continuing ...
Got unknown event 17 ... continuing ...
Got unknown event 17 ... continuing ...
Got unknown event 17 ... continuing ...
srun: Job step aborted: Waiting up to 2 seconds for job step to finish.
slurmd[node438]: *** STEP 3234674.0 CANCELLED AT 2014-02-23T10:44:17 DUE TO TIME LIMIT ***
slurmd[node438]: *** JOB 3234674 CANCELLED AT 2014-02-23T10:44:17 DUE TO TIME LIMIT ***
