
opisthokonta_chain1.treelist : 99 trees
opisthokonta_chain2.treelist : 314 trees

maxdiff     : 1
meandiff    : 0.012205

bipartition list in : bpcomp.bplist
consensus in        : bpcomp.con.tre

name                effsize	rel_diff

loglik              3		0.912463
length              4		0.59954
alpha               4		2.39115
Nmode               29		0.805524
statent             3		1.58447
statalpha           37		2.90565
rrent               9		0.356334
rrmean              829		0.104599
