%!PS-Adobe-3.0 EPSF-3.0
%%DocumentNeededResources: font Helvetica
%%+ font Helvetica-Bold
%%+ font Helvetica-Oblique
%%+ font Helvetica-BoldOblique
%%+ font Symbol
%%Title: R Graphics Output
%%Creator: R Software
%%Pages: (atend)
%%BoundingBox: 0 0 288 288
%%EndComments
%%BeginProlog
/bp  { gs sRGB gs } def
% begin .ps.prolog
/gs  { gsave } bind def
/gr  { grestore } bind def
/ep  { showpage gr gr } bind def
/m   { moveto } bind def
/l  { rlineto } bind def
/np  { newpath } bind def
/cp  { closepath } bind def
/f   { fill } bind def
/o   { stroke } bind def
/c   { newpath 0 360 arc } bind def
/r   { 4 2 roll moveto 1 copy 3 -1 roll exch 0 exch rlineto 0 rlineto -1 mul 0 exch rlineto closepath } bind def
/p1  { stroke } bind def
/p2  { gsave bg fill grestore newpath } bind def
/p3  { gsave bg fill grestore stroke } bind def
/p6  { gsave bg eofill grestore newpath } bind def
/p7  { gsave bg eofill grestore stroke } bind def
/t   { 5 -2 roll moveto gsave rotate
       1 index stringwidth pop
       mul neg 0 rmoveto show grestore } bind def
/ta  { 4 -2 roll moveto gsave rotate show } bind def
/tb  { 2 -1 roll 0 rmoveto show } bind def
/cl  { grestore gsave newpath 3 index 3 index moveto 1 index
       4 -1 roll lineto  exch 1 index lineto lineto
       closepath clip newpath } bind def
/rgb { setrgbcolor } bind def
/s   { scalefont setfont } bind def
% end   .ps.prolog
/sRGB { [ /CIEBasedABC
          << /DecodeLMN
               [ { dup 0.03928 le
                        {12.92321 div}
                        {0.055 add 1.055 div 2.4 exp }
                     ifelse
                 } bind dup dup
               ]
             /MatrixLMN [0.412457 0.212673 0.019334
                         0.357576 0.715152 0.119192
                         0.180437 0.072175 0.950301]
             /WhitePoint [0.9505 1.0 1.0890]
           >>
         ] setcolorspace } bind def
/srgb { setcolor } bind def
%%IncludeResource: font Helvetica
/Helvetica findfont
dup length dict begin
  {1 index /FID ne {def} {pop pop} ifelse} forall
  /Encoding ISOLatin1Encoding def
  currentdict
  end
/Font1 exch definefont pop
%%IncludeResource: font Helvetica-Bold
/Helvetica-Bold findfont
dup length dict begin
  {1 index /FID ne {def} {pop pop} ifelse} forall
  /Encoding ISOLatin1Encoding def
  currentdict
  end
/Font2 exch definefont pop
%%IncludeResource: font Helvetica-Oblique
/Helvetica-Oblique findfont
dup length dict begin
  {1 index /FID ne {def} {pop pop} ifelse} forall
  /Encoding ISOLatin1Encoding def
  currentdict
  end
/Font3 exch definefont pop
%%IncludeResource: font Helvetica-BoldOblique
/Helvetica-BoldOblique findfont
dup length dict begin
  {1 index /FID ne {def} {pop pop} ifelse} forall
  /Encoding ISOLatin1Encoding def
  currentdict
  end
/Font4 exch definefont pop
%%IncludeResource: font Symbol
/Symbol findfont
dup length dict begin
  {1 index /FID ne {def} {pop pop} ifelse} forall
  currentdict
  end
/Font5 exch definefont pop
%%EndProlog
%%Page: 1 1
bp
59.04 73.44 257.76 228.96 cl
0 0 1 srgb
0.75 setlinewidth
[] 0 setdash
1 setlinecap
1 setlinejoin
10.00 setmiterlimit
np
66.40 223.20 m
0.18 -144.00 l
0.19 0.14 l
0.18 1.34 l
0.19 -0.49 l
0.18 -0.26 l
0.19 1.10 l
0.18 -0.12 l
0.18 -0.45 l
0.19 -0.04 l
0.18 -0.37 l
0.19 0.46 l
0.18 0.30 l
0.18 -0.06 l
0.19 0.38 l
0.18 0.10 l
0.19 0.29 l
0.18 0.06 l
0.19 0.38 l
0.18 0.29 l
0.18 0.09 l
0.19 -0.21 l
0.18 0.08 l
0.19 0.23 l
0.18 -0.19 l
0.18 0.01 l
0.19 0.22 l
0.18 0.08 l
0.19 0.04 l
0.18 -0.27 l
0.19 -0.05 l
0.18 0.12 l
0.18 0 l
0.19 -0.08 l
0.18 -0.08 l
0.19 -0.09 l
0.18 -0.05 l
0.18 0.02 l
0.19 -0.12 l
0.18 0.02 l
0.19 -0.05 l
0.18 0.30 l
0.19 -0.19 l
0.18 0.14 l
0.18 0.14 l
0.19 0.03 l
0.18 -0.14 l
0.19 0.07 l
0.18 0.11 l
0.19 0.07 l
0.18 -0.04 l
0.18 -0.08 l
0.19 0.03 l
0.18 0.07 l
0.19 0.04 l
0.18 0.06 l
0.18 -0.02 l
0.19 0.02 l
0.18 0.03 l
0.19 0.02 l
0.18 -0.12 l
0.19 -0.01 l
0.18 -0.02 l
0.18 0.04 l
0.19 -0.07 l
0.18 0.07 l
0.19 0.02 l
0.18 0 l
0.18 0.09 l
0.19 0.03 l
0.18 -0.07 l
0.19 0.05 l
0.18 -0.01 l
0.19 0 l
0.18 -0.11 l
0.18 -0.01 l
0.19 -0.04 l
0.18 0 l
0.19 -0.05 l
0.18 -0.07 l
0.18 0 l
0.19 0.04 l
0.18 -0.06 l
0.19 -0.05 l
0.18 -0.02 l
0.19 -0.01 l
0.18 -0.03 l
0.18 0.05 l
0.19 -0.02 l
0.18 -0.04 l
0.19 -0.01 l
0.18 -0.10 l
0.18 -0.03 l
0.19 0 l
0.18 -0.01 l
0.19 0.02 l
0.18 0.01 l
0.19 0.02 l
0.18 -0.05 l
0.18 0.02 l
84.82 82.07 lineto
0.18 -0.01 l
0.19 0.01 l
0.18 0.02 l
0.19 0.02 l
0.18 0.01 l
0.18 -0.07 l
0.19 0.02 l
0.18 0.01 l
0.19 -0.01 l
0.18 0.01 l
0.18 -0.01 l
0.19 0.05 l
0.18 0.02 l
0.19 -0.01 l
0.18 0.02 l
0.19 -0.06 l
0.18 -0.01 l
0.18 0.04 l
0.19 -0.03 l
0.18 0.01 l
0.19 0.01 l
0.18 -0.02 l
0.18 0 l
0.19 0.01 l
0.18 -0.04 l
0.19 -0.03 l
0.18 0.01 l
0.19 0.03 l
0.18 -0.02 l
0.18 -0.01 l
0.19 0.04 l
0.18 0.02 l
0.19 0.02 l
0.18 0.02 l
0.18 0.01 l
0.19 -0.01 l
0.18 0.01 l
0.19 0.05 l
0.18 0.01 l
0.19 -0.02 l
0.18 -0.01 l
0.18 0.03 l
0.19 -0.03 l
0.18 -0.05 l
0.19 -0.03 l
0.18 0 l
0.19 0.02 l
0.18 0 l
0.18 0.01 l
0.19 0.05 l
0.18 -0.01 l
0.19 -0.05 l
0.18 -0.02 l
0.18 0.01 l
0.19 -0.03 l
0.18 0 l
0.19 -0.03 l
0.18 -0.01 l
0.19 0 l
0.18 -0.02 l
0.18 0 l
0.19 0 l
0.18 0.03 l
0.19 -0.04 l
0.18 -0.03 l
0.18 0.06 l
0.19 0.03 l
0.18 -0.03 l
0.19 0 l
0.18 -0.01 l
0.19 -0.04 l
0.18 -0.03 l
0.18 0.01 l
0.19 0.03 l
0.18 -0.03 l
0.19 0.03 l
0.18 -0.06 l
0.18 0.01 l
0.19 0.01 l
0.18 0 l
0.19 -0.05 l
0.18 -0.04 l
0.19 0.03 l
0.18 0 l
0.18 0 l
0.19 0.01 l
0.18 -0.02 l
0.19 0.04 l
0.18 -0.01 l
0.18 0.05 l
0.19 0.01 l
0.18 0.02 l
0.19 0.01 l
0.18 0 l
0.19 -0.02 l
0.18 -0.01 l
0.18 -0.03 l
0.19 0 l
0.18 -0.02 l
103.24 81.99 lineto
0.18 -0.03 l
0.19 0.02 l
0.18 -0.01 l
0.18 0.01 l
0.19 -0.03 l
0.18 -0.01 l
0.19 0.03 l
0.18 0.01 l
0.18 0 l
0.19 -0.01 l
0.18 -0.02 l
0.19 -0.01 l
0.18 0 l
0.19 0.01 l
0.18 -0.02 l
0.18 0.03 l
0.19 0 l
0.18 0 l
0.19 -0.03 l
0.18 0 l
0.18 -0.02 l
0.19 0.01 l
0.18 0.02 l
0.19 0.01 l
0.18 0.01 l
0.19 -0.03 l
0.18 0.02 l
0.18 -0.02 l
0.19 0 l
0.18 0.05 l
0.19 0 l
0.18 0 l
0.18 0.02 l
0.19 0.02 l
0.18 0 l
0.19 0 l
0.18 -0.01 l
0.19 -0.02 l
0.18 -0.01 l
0.18 0 l
0.19 -0.01 l
0.18 0.01 l
0.19 0.01 l
0.18 0 l
0.19 0 l
0.18 -0.01 l
0.18 0.01 l
0.19 0.03 l
0.18 -0.02 l
0.19 -0.01 l
0.18 -0.02 l
0.18 -0.01 l
0.19 0.01 l
0.18 -0.03 l
0.19 -0.01 l
0.18 -0.02 l
0.19 0.01 l
0.18 0 l
0.18 0.02 l
0.19 0.01 l
0.18 -0.01 l
0.19 -0.02 l
0.18 0 l
0.18 0.01 l
0.19 0.02 l
0.18 0 l
0.19 -0.01 l
0.18 0.01 l
0.19 0.02 l
0.18 -0.01 l
0.18 0.02 l
0.19 0.03 l
0.18 0.01 l
0.19 -0.01 l
0.18 0.01 l
0.18 -0.02 l
0.19 0.01 l
0.18 0 l
0.19 -0.02 l
0.18 0.01 l
0.19 0.01 l
0.18 0.01 l
0.18 0.02 l
0.19 0.01 l
0.18 0 l
0.19 0 l
0.18 0.01 l
0.19 0 l
0.18 0 l
0.18 0 l
0.19 -0.04 l
0.18 0 l
0.19 -0.02 l
0.18 -0.02 l
0.18 -0.01 l
0.19 -0.01 l
0.18 0 l
0.19 -0.02 l
0.18 -0.02 l
121.66 81.92 lineto
0.18 0.02 l
0.18 0.01 l
0.19 0.03 l
0.18 -0.01 l
0.19 0.01 l
0.18 0.01 l
0.18 0.03 l
0.19 0.03 l
0.18 -0.01 l
0.19 0 l
0.18 -0.01 l
0.19 0 l
0.18 0 l
0.18 -0.01 l
0.19 -0.01 l
0.18 0.02 l
0.19 0 l
0.18 0.01 l
0.18 0 l
0.19 -0.01 l
0.18 -0.01 l
0.19 0 l
0.18 -0.01 l
0.19 0.01 l
0.18 0 l
0.18 0 l
0.19 0.01 l
0.18 0 l
0.19 -0.02 l
0.18 0 l
0.18 0.01 l
0.19 0.02 l
0.18 -0.01 l
0.19 -0.01 l
0.18 0.01 l
0.19 0 l
0.18 0.01 l
0.18 0 l
0.19 -0.01 l
0.18 0 l
0.19 0 l
0.18 -0.01 l
0.19 0.01 l
0.18 -0.01 l
0.18 0.01 l
0.19 -0.01 l
0.18 0 l
0.19 0.01 l
0.18 -0.01 l
0.18 0.01 l
0.19 0 l
0.18 0 l
0.19 0.01 l
0.18 -0.01 l
0.19 -0.01 l
0.18 0 l
0.18 0.01 l
0.19 0 l
0.18 0.02 l
0.19 -0.01 l
0.18 0 l
0.18 0.01 l
0.19 0.01 l
0.18 -0.01 l
0.19 0.02 l
0.18 0.01 l
0.19 0.01 l
0.18 0 l
0.18 0.01 l
0.19 -0.01 l
0.18 -0.01 l
0.19 0.01 l
0.18 -0.02 l
0.18 0.02 l
0.19 -0.01 l
0.18 -0.01 l
0.19 0 l
0.18 0.01 l
0.19 -0.01 l
0.18 0 l
0.18 0.02 l
0.19 0.01 l
0.18 -0.01 l
0.19 0.02 l
0.18 0 l
0.19 0.01 l
0.18 0 l
0.18 -0.01 l
0.19 -0.01 l
0.18 -0.01 l
0.19 -0.01 l
0.18 0 l
0.18 -0.01 l
0.19 0 l
0.18 0.01 l
0.19 0.01 l
0.18 0 l
0.19 -0.01 l
0.18 0 l
140.07 82.06 lineto
0.19 0 l
0.18 0.01 l
0.19 0.02 l
0.18 0 l
0.18 -0.02 l
0.19 0 l
0.18 0.02 l
0.19 0 l
0.18 0 l
0.19 0 l
0.18 0 l
0.18 -0.01 l
0.19 0 l
0.18 0 l
0.19 -0.01 l
0.18 -0.01 l
0.18 0 l
0.19 0.01 l
0.18 0 l
0.19 0 l
0.18 0 l
0.19 0.01 l
0.18 0 l
0.18 0 l
0.19 -0.01 l
0.18 0 l
0.19 0.02 l
0.18 0 l
0.19 0 l
0.18 0.01 l
0.18 0.01 l
0.19 0 l
0.18 0 l
0.19 0.01 l
0.18 0.01 l
0.18 0 l
0.19 0.01 l
0.18 -0.01 l
0.19 -0.01 l
0.18 0.01 l
0.19 -0.01 l
0.18 0.01 l
0.18 0 l
0.19 0 l
0.18 0 l
0.19 0.02 l
0.18 0 l
0.18 0 l
0.19 0 l
0.18 0 l
0.19 -0.02 l
0.18 0.01 l
0.19 -0.01 l
0.18 -0.01 l
0.18 0.03 l
0.19 0.01 l
0.18 -0.01 l
0.19 0 l
0.18 -0.01 l
0.18 -0.01 l
0.19 0 l
0.18 -0.01 l
0.19 0.01 l
0.18 0 l
0.19 0.01 l
0.18 -0.01 l
0.18 0 l
0.19 -0.02 l
0.18 0.01 l
0.19 0 l
0.18 0 l
0.18 0 l
0.19 0 l
0.18 0 l
0.19 0.01 l
0.18 0.01 l
0.19 -0.01 l
0.18 -0.01 l
0.18 0 l
0.19 -0.01 l
0.18 -0.01 l
0.19 0.01 l
0.18 -0.02 l
0.19 0 l
0.18 0 l
0.18 -0.01 l
0.19 0 l
0.18 0 l
0.19 0 l
0.18 0.01 l
0.18 -0.02 l
0.19 0 l
0.18 0.01 l
0.19 0 l
0.18 -0.01 l
0.19 0 l
0.18 0 l
0.18 0.01 l
0.19 -0.01 l
158.49 82.06 lineto
0.19 -0.01 l
0.18 0.01 l
0.18 0 l
0.19 0 l
0.18 -0.01 l
0.19 0.01 l
0.18 -0.01 l
0.19 -0.01 l
0.18 -0.02 l
0.18 0.01 l
0.19 -0.01 l
0.18 -0.01 l
0.19 0.01 l
0.18 0 l
0.18 -0.02 l
0.19 0.01 l
0.18 -0.01 l
0.19 0.01 l
0.18 0 l
0.19 0 l
0.18 -0.01 l
0.18 -0.01 l
0.19 0.01 l
0.18 0.01 l
0.19 -0.01 l
0.18 0 l
0.19 0.01 l
0.18 0 l
0.18 0.01 l
0.19 0 l
0.18 0 l
0.19 0.01 l
0.18 0 l
0.18 -0.01 l
0.19 0 l
0.18 0.01 l
0.19 0 l
0.18 -0.01 l
0.19 0 l
0.18 0.01 l
0.18 0.01 l
0.19 -0.01 l
0.18 0.01 l
0.19 0 l
0.18 0 l
0.18 -0.01 l
0.19 0.01 l
0.18 -0.01 l
0.19 -0.01 l
0.18 0 l
0.19 0.01 l
0.18 0 l
0.18 0 l
0.19 0.01 l
0.18 0 l
0.19 0 l
0.18 0.01 l
0.18 0.01 l
0.19 0.01 l
0.18 -0.01 l
0.19 -0.01 l
0.18 0.01 l
0.19 -0.02 l
0.18 0.01 l
0.18 0 l
0.19 0 l
0.18 0.01 l
0.19 -0.01 l
0.18 0.01 l
0.18 0.01 l
0.19 0 l
0.18 -0.01 l
0.19 0 l
0.18 0 l
0.19 0 l
0.18 0 l
0.18 0 l
0.19 0.02 l
0.18 -0.02 l
0.19 0 l
0.18 0.01 l
0.19 0 l
0.18 -0.01 l
0.18 0 l
0.19 -0.01 l
0.18 0 l
0.19 0 l
0.18 0 l
0.18 0.01 l
0.19 0.02 l
0.18 0 l
0.19 0 l
0.18 0 l
0.19 0 l
0.18 0 l
0.18 0 l
0.19 0 l
0.18 0.01 l
0.19 -0.01 l
176.91 82.09 lineto
0.18 -0.01 l
0.19 -0.01 l
0.18 0.01 l
0.19 0 l
0.18 0.01 l
0.19 -0.01 l
0.18 0 l
0.18 0 l
0.19 -0.01 l
0.18 0 l
0.19 0 l
0.18 0 l
0.18 0 l
0.19 0 l
0.18 0 l
0.19 0.01 l
0.18 0 l
0.19 0.01 l
0.18 0 l
0.18 -0.01 l
0.19 0.01 l
0.18 -0.01 l
0.19 0.01 l
0.18 -0.02 l
0.19 0.01 l
0.18 0 l
0.18 -0.01 l
0.19 0 l
0.18 0 l
0.19 0 l
0.18 0.01 l
0.18 0 l
0.19 0 l
0.18 0 l
0.19 0.01 l
0.18 0 l
0.19 0 l
0.18 0.01 l
0.18 0 l
0.19 -0.01 l
0.18 0 l
0.19 0.01 l
0.18 0 l
0.18 0 l
0.19 0.01 l
0.18 0 l
0.19 0 l
0.18 0 l
0.19 0 l
0.18 -0.01 l
0.18 0 l
0.19 -0.01 l
0.18 0 l
0.19 0.01 l
0.18 -0.01 l
0.18 0.01 l
0.19 0 l
0.18 -0.01 l
0.19 0 l
0.18 0 l
0.19 -0.01 l
0.18 0 l
0.18 0.01 l
0.19 0 l
0.18 -0.01 l
0.19 0 l
0.18 -0.01 l
0.19 -0.01 l
0.18 -0.01 l
0.18 0 l
0.19 0 l
0.18 -0.01 l
0.19 0 l
0.18 0 l
0.18 -0.01 l
0.19 0 l
0.18 0 l
0.19 0.01 l
0.18 -0.01 l
0.19 0 l
0.18 0.01 l
0.18 0 l
0.19 0.01 l
0.18 0 l
0.19 0 l
0.18 0 l
0.18 0 l
0.19 0 l
0.18 -0.02 l
0.19 0.01 l
0.18 0.01 l
0.19 0.01 l
0.18 0 l
0.18 -0.01 l
0.19 0.01 l
0.18 0 l
0.19 0 l
0.18 0 l
0.18 0.01 l
195.33 82.07 lineto
0.18 -0.01 l
0.19 0 l
0.18 -0.01 l
0.19 0 l
0.18 0.01 l
0.18 0 l
0.19 0 l
0.18 -0.01 l
0.19 0 l
0.18 0 l
0.18 0 l
0.19 0 l
0.18 0.01 l
0.19 0 l
0.18 -0.01 l
0.19 0 l
0.18 0 l
0.18 -0.01 l
0.19 0.01 l
0.18 0 l
0.19 0 l
0.18 0 l
0.19 0 l
0.18 0 l
0.18 0 l
0.19 -0.01 l
0.18 0 l
0.19 0.01 l
0.18 0 l
0.18 -0.01 l
0.19 0 l
0.18 -0.01 l
0.19 0 l
0.18 0 l
0.19 0 l
0.18 0.01 l
0.18 0 l
0.19 0 l
0.18 0 l
0.19 0 l
0.18 0 l
0.18 0 l
0.19 0 l
0.18 0.01 l
0.19 0 l
0.18 0 l
0.19 0 l
0.18 0 l
0.18 0 l
0.19 0.01 l
0.18 0 l
0.19 0 l
0.18 0.02 l
0.18 0 l
0.19 0 l
0.18 0 l
0.19 0.01 l
0.18 0.01 l
0.19 0 l
0.18 0.01 l
0.18 0 l
0.19 0 l
0.18 0.01 l
0.19 -0.01 l
0.18 0.01 l
0.19 0 l
0.18 0 l
0.18 0.01 l
0.19 -0.01 l
0.18 0 l
0.19 0 l
0.18 0.01 l
0.18 0 l
0.19 0 l
0.18 0 l
0.19 0 l
0.18 0 l
0.19 0 l
0.18 0 l
0.18 0 l
0.19 0.01 l
0.18 0 l
0.19 -0.01 l
0.18 0 l
0.18 0 l
0.19 0.01 l
0.18 0 l
0.19 -0.01 l
0.18 0 l
0.19 0 l
0.18 0.01 l
0.18 0 l
0.19 0 l
0.18 0 l
0.19 0.01 l
0.18 0.01 l
0.18 0 l
0.19 0 l
0.18 0.01 l
213.75 82.17 lineto
0.18 0 l
0.19 -0.01 l
0.18 0 l
0.18 0 l
0.19 0 l
0.18 0 l
0.19 0 l
0.18 0.01 l
0.19 -0.01 l
0.18 0.01 l
0.18 -0.01 l
0.19 0 l
0.18 0 l
0.19 0 l
0.18 0 l
0.18 0 l
0.19 -0.01 l
0.18 0 l
0.19 0 l
0.18 -0.01 l
0.19 0 l
0.18 0.01 l
0.18 0 l
0.19 0 l
0.18 0 l
0.19 0.01 l
0.18 0 l
0.18 0.01 l
0.19 0 l
0.18 0 l
0.19 0.01 l
0.18 0 l
0.19 0 l
0.18 0 l
0.18 -0.01 l
0.19 0 l
0.18 0 l
0.19 0 l
0.18 0.01 l
0.18 0 l
0.19 0.01 l
0.18 0.01 l
0.19 -0.01 l
0.18 0 l
0.19 0 l
0.18 0 l
0.18 0 l
0.19 0 l
0.18 0 l
0.19 0 l
0.18 0.01 l
0.18 0 l
0.19 0 l
0.18 0.01 l
0.19 0 l
0.18 0 l
0.19 0 l
0.18 0 l
0.18 0 l
0.19 0.01 l
0.18 0 l
0.19 0 l
0.18 0 l
0.19 0 l
0.18 -0.01 l
0.18 0 l
0.19 0.01 l
0.18 0 l
0.19 0 l
0.18 0 l
0.18 0 l
0.19 0 l
0.18 0.01 l
0.19 0 l
0.18 0 l
0.19 0 l
0.18 0 l
0.18 -0.01 l
0.19 0 l
0.18 0 l
0.19 0 l
0.18 0 l
0.18 -0.01 l
0.19 0 l
0.18 0 l
0.19 0 l
0.18 0 l
0.19 0 l
0.18 0 l
0.18 0 l
0.19 -0.01 l
0.18 0 l
0.19 0 l
0.18 0 l
0.18 0 l
0.19 0 l
0.18 0.01 l
0.19 -0.01 l
0.18 0 l
232.17 82.20 lineto
0.18 -0.01 l
0.18 0 l
0.19 0 l
0.18 0 l
0.19 0 l
0.18 0.01 l
0.19 0 l
0.18 0 l
0.18 0 l
0.19 0 l
0.18 0 l
0.19 -0.01 l
0.18 0 l
0.18 0 l
0.19 0 l
0.18 0 l
0.19 0 l
0.18 0 l
0.19 0 l
0.18 0 l
0.18 0 l
0.19 0 l
0.18 0.01 l
0.19 0 l
0.18 0 l
0.18 0.01 l
0.19 -0.02 l
0.18 0.01 l
0.19 0 l
0.18 0 l
0.19 0 l
0.18 0 l
0.18 0 l
0.19 0 l
0.18 0 l
0.19 0.01 l
0.18 0 l
0.18 0 l
0.19 0 l
0.18 -0.01 l
0.19 0 l
0.18 0 l
0.19 0 l
0.18 0 l
0.18 0 l
0.19 0 l
0.18 0 l
0.19 -0.01 l
0.18 0.01 l
0.18 0 l
0.19 0 l
0.18 0.01 l
0.19 0 l
0.18 0 l
0.19 0.01 l
0.18 0 l
0.18 0 l
0.19 -0.01 l
0.18 0.01 l
0.19 -0.01 l
0.18 0 l
0.19 0 l
0.18 0 l
0.18 0 l
0.19 0 l
0.18 0 l
0.19 0 l
0.18 0 l
0.18 0 l
0.19 0 l
0.18 0 l
0.19 0 l
0.18 0 l
0.19 0 l
0.18 0 l
0.18 0.01 l
0.19 0 l
0.18 0 l
0.19 0 l
0.18 0 l
0.18 -0.01 l
0.19 0.01 l
0.18 -0.01 l
0.19 0 l
0.18 0 l
0.19 0 l
0.18 0.01 l
0.18 0 l
0.19 0 l
0.18 0 l
0.19 0 l
0.18 -0.01 l
0.18 0 l
0.19 0 l
0.18 0 l
0.19 0 l
0.18 0 l
0.19 0 l
0.18 -0.01 l
o
66.40 223.20 2.70 c p1
66.58 79.20 2.70 c p1
66.77 79.34 2.70 c p1
66.95 80.68 2.70 c p1
67.14 80.19 2.70 c p1
67.32 79.93 2.70 c p1
67.51 81.03 2.70 c p1
67.69 80.91 2.70 c p1
67.87 80.46 2.70 c p1
68.06 80.42 2.70 c p1
68.24 80.05 2.70 c p1
68.43 80.51 2.70 c p1
68.61 80.81 2.70 c p1
68.79 80.75 2.70 c p1
68.98 81.13 2.70 c p1
69.16 81.23 2.70 c p1
69.35 81.52 2.70 c p1
69.53 81.58 2.70 c p1
69.72 81.96 2.70 c p1
69.90 82.25 2.70 c p1
70.08 82.34 2.70 c p1
70.27 82.13 2.70 c p1
70.45 82.21 2.70 c p1
70.64 82.44 2.70 c p1
70.82 82.25 2.70 c p1
71.00 82.26 2.70 c p1
71.19 82.48 2.70 c p1
71.37 82.56 2.70 c p1
71.56 82.60 2.70 c p1
71.74 82.33 2.70 c p1
71.93 82.28 2.70 c p1
72.11 82.40 2.70 c p1
72.29 82.40 2.70 c p1
72.48 82.32 2.70 c p1
72.66 82.24 2.70 c p1
72.85 82.15 2.70 c p1
73.03 82.10 2.70 c p1
73.21 82.12 2.70 c p1
73.40 82.00 2.70 c p1
73.58 82.02 2.70 c p1
73.77 81.97 2.70 c p1
73.95 82.27 2.70 c p1
74.14 82.08 2.70 c p1
74.32 82.22 2.70 c p1
74.50 82.36 2.70 c p1
74.69 82.39 2.70 c p1
74.87 82.25 2.70 c p1
75.06 82.32 2.70 c p1
75.24 82.43 2.70 c p1
75.43 82.50 2.70 c p1
75.61 82.46 2.70 c p1
75.79 82.38 2.70 c p1
75.98 82.41 2.70 c p1
76.16 82.48 2.70 c p1
76.35 82.52 2.70 c p1
76.53 82.58 2.70 c p1
76.71 82.56 2.70 c p1
76.90 82.58 2.70 c p1
77.08 82.61 2.70 c p1
77.27 82.63 2.70 c p1
77.45 82.51 2.70 c p1
77.64 82.50 2.70 c p1
77.82 82.48 2.70 c p1
78.00 82.52 2.70 c p1
78.19 82.45 2.70 c p1
78.37 82.52 2.70 c p1
78.56 82.54 2.70 c p1
78.74 82.54 2.70 c p1
78.92 82.63 2.70 c p1
79.11 82.66 2.70 c p1
79.29 82.59 2.70 c p1
79.48 82.64 2.70 c p1
79.66 82.63 2.70 c p1
79.85 82.63 2.70 c p1
80.03 82.52 2.70 c p1
80.21 82.51 2.70 c p1
80.40 82.47 2.70 c p1
80.58 82.47 2.70 c p1
80.77 82.42 2.70 c p1
80.95 82.35 2.70 c p1
81.13 82.35 2.70 c p1
81.32 82.39 2.70 c p1
81.50 82.33 2.70 c p1
81.69 82.28 2.70 c p1
81.87 82.26 2.70 c p1
82.06 82.25 2.70 c p1
82.24 82.22 2.70 c p1
82.42 82.27 2.70 c p1
82.61 82.25 2.70 c p1
82.79 82.21 2.70 c p1
82.98 82.20 2.70 c p1
83.16 82.10 2.70 c p1
83.34 82.07 2.70 c p1
83.53 82.07 2.70 c p1
83.71 82.06 2.70 c p1
83.90 82.08 2.70 c p1
84.08 82.09 2.70 c p1
84.27 82.11 2.70 c p1
84.45 82.06 2.70 c p1
84.63 82.08 2.70 c p1
84.82 82.07 2.70 c p1
85.00 82.06 2.70 c p1
85.19 82.07 2.70 c p1
85.37 82.09 2.70 c p1
85.56 82.11 2.70 c p1
85.74 82.12 2.70 c p1
85.92 82.05 2.70 c p1
86.11 82.07 2.70 c p1
86.29 82.08 2.70 c p1
86.48 82.07 2.70 c p1
86.66 82.08 2.70 c p1
86.84 82.07 2.70 c p1
87.03 82.12 2.70 c p1
87.21 82.14 2.70 c p1
87.40 82.13 2.70 c p1
87.58 82.15 2.70 c p1
87.77 82.09 2.70 c p1
87.95 82.08 2.70 c p1
88.13 82.12 2.70 c p1
88.32 82.09 2.70 c p1
88.50 82.10 2.70 c p1
88.69 82.11 2.70 c p1
88.87 82.09 2.70 c p1
89.05 82.09 2.70 c p1
89.24 82.10 2.70 c p1
89.42 82.06 2.70 c p1
89.61 82.03 2.70 c p1
89.79 82.04 2.70 c p1
89.98 82.07 2.70 c p1
90.16 82.05 2.70 c p1
90.34 82.04 2.70 c p1
90.53 82.08 2.70 c p1
90.71 82.10 2.70 c p1
90.90 82.12 2.70 c p1
91.08 82.14 2.70 c p1
91.26 82.15 2.70 c p1
91.45 82.14 2.70 c p1
91.63 82.15 2.70 c p1
91.82 82.20 2.70 c p1
92.00 82.21 2.70 c p1
92.19 82.19 2.70 c p1
92.37 82.18 2.70 c p1
92.55 82.21 2.70 c p1
92.74 82.18 2.70 c p1
92.92 82.13 2.70 c p1
93.11 82.10 2.70 c p1
93.29 82.10 2.70 c p1
93.48 82.12 2.70 c p1
93.66 82.12 2.70 c p1
93.84 82.13 2.70 c p1
94.03 82.18 2.70 c p1
94.21 82.17 2.70 c p1
94.40 82.12 2.70 c p1
94.58 82.10 2.70 c p1
94.76 82.11 2.70 c p1
94.95 82.08 2.70 c p1
95.13 82.08 2.70 c p1
95.32 82.05 2.70 c p1
95.50 82.04 2.70 c p1
95.69 82.04 2.70 c p1
95.87 82.02 2.70 c p1
96.05 82.02 2.70 c p1
96.24 82.02 2.70 c p1
96.42 82.05 2.70 c p1
96.61 82.01 2.70 c p1
96.79 81.98 2.70 c p1
96.97 82.04 2.70 c p1
97.16 82.07 2.70 c p1
97.34 82.04 2.70 c p1
97.53 82.04 2.70 c p1
97.71 82.03 2.70 c p1
97.90 81.99 2.70 c p1
98.08 81.96 2.70 c p1
98.26 81.97 2.70 c p1
98.45 82.00 2.70 c p1
98.63 81.97 2.70 c p1
98.82 82.00 2.70 c p1
99.00 81.94 2.70 c p1
99.18 81.95 2.70 c p1
99.37 81.96 2.70 c p1
99.55 81.96 2.70 c p1
99.74 81.91 2.70 c p1
99.92 81.87 2.70 c p1
100.11 81.90 2.70 c p1
100.29 81.90 2.70 c p1
100.47 81.90 2.70 c p1
100.66 81.91 2.70 c p1
100.84 81.89 2.70 c p1
101.03 81.93 2.70 c p1
101.21 81.92 2.70 c p1
101.39 81.97 2.70 c p1
101.58 81.98 2.70 c p1
101.76 82.00 2.70 c p1
101.95 82.01 2.70 c p1
102.13 82.01 2.70 c p1
102.32 81.99 2.70 c p1
102.50 81.98 2.70 c p1
102.68 81.95 2.70 c p1
102.87 81.95 2.70 c p1
103.05 81.93 2.70 c p1
103.24 81.99 2.70 c p1
103.42 81.96 2.70 c p1
103.61 81.98 2.70 c p1
103.79 81.97 2.70 c p1
103.97 81.98 2.70 c p1
104.16 81.95 2.70 c p1
104.34 81.94 2.70 c p1
104.53 81.97 2.70 c p1
104.71 81.98 2.70 c p1
104.89 81.98 2.70 c p1
105.08 81.97 2.70 c p1
105.26 81.95 2.70 c p1
105.45 81.94 2.70 c p1
105.63 81.94 2.70 c p1
105.82 81.95 2.70 c p1
106.00 81.93 2.70 c p1
106.18 81.96 2.70 c p1
106.37 81.96 2.70 c p1
106.55 81.96 2.70 c p1
106.74 81.93 2.70 c p1
106.92 81.93 2.70 c p1
107.10 81.91 2.70 c p1
107.29 81.92 2.70 c p1
107.47 81.94 2.70 c p1
107.66 81.95 2.70 c p1
107.84 81.96 2.70 c p1
108.03 81.93 2.70 c p1
108.21 81.95 2.70 c p1
108.39 81.93 2.70 c p1
108.58 81.93 2.70 c p1
108.76 81.98 2.70 c p1
108.95 81.98 2.70 c p1
109.13 81.98 2.70 c p1
109.31 82.00 2.70 c p1
109.50 82.02 2.70 c p1
109.68 82.02 2.70 c p1
109.87 82.02 2.70 c p1
110.05 82.01 2.70 c p1
110.24 81.99 2.70 c p1
110.42 81.98 2.70 c p1
110.60 81.98 2.70 c p1
110.79 81.97 2.70 c p1
110.97 81.98 2.70 c p1
111.16 81.99 2.70 c p1
111.34 81.99 2.70 c p1
111.53 81.99 2.70 c p1
111.71 81.98 2.70 c p1
111.89 81.99 2.70 c p1
112.08 82.02 2.70 c p1
112.26 82.00 2.70 c p1
112.45 81.99 2.70 c p1
112.63 81.97 2.70 c p1
112.81 81.96 2.70 c p1
113.00 81.97 2.70 c p1
113.18 81.94 2.70 c p1
113.37 81.93 2.70 c p1
113.55 81.91 2.70 c p1
113.74 81.92 2.70 c p1
113.92 81.92 2.70 c p1
114.10 81.94 2.70 c p1
114.29 81.95 2.70 c p1
114.47 81.94 2.70 c p1
114.66 81.92 2.70 c p1
114.84 81.92 2.70 c p1
115.02 81.93 2.70 c p1
115.21 81.95 2.70 c p1
115.39 81.95 2.70 c p1
115.58 81.94 2.70 c p1
115.76 81.95 2.70 c p1
115.95 81.97 2.70 c p1
116.13 81.96 2.70 c p1
116.31 81.98 2.70 c p1
116.50 82.01 2.70 c p1
116.68 82.02 2.70 c p1
116.87 82.01 2.70 c p1
117.05 82.02 2.70 c p1
117.23 82.00 2.70 c p1
117.42 82.01 2.70 c p1
117.60 82.01 2.70 c p1
117.79 81.99 2.70 c p1
117.97 82.00 2.70 c p1
118.16 82.01 2.70 c p1
118.34 82.02 2.70 c p1
118.52 82.04 2.70 c p1
118.71 82.05 2.70 c p1
118.89 82.05 2.70 c p1
119.08 82.05 2.70 c p1
119.26 82.06 2.70 c p1
119.45 82.06 2.70 c p1
119.63 82.06 2.70 c p1
119.81 82.06 2.70 c p1
120.00 82.02 2.70 c p1
120.18 82.02 2.70 c p1
120.37 82.00 2.70 c p1
120.55 81.98 2.70 c p1
120.73 81.97 2.70 c p1
120.92 81.96 2.70 c p1
121.10 81.96 2.70 c p1
121.29 81.94 2.70 c p1
121.47 81.92 2.70 c p1
121.66 81.92 2.70 c p1
121.84 81.94 2.70 c p1
122.02 81.95 2.70 c p1
122.21 81.98 2.70 c p1
122.39 81.97 2.70 c p1
122.58 81.98 2.70 c p1
122.76 81.99 2.70 c p1
122.94 82.02 2.70 c p1
123.13 82.05 2.70 c p1
123.31 82.04 2.70 c p1
123.50 82.04 2.70 c p1
123.68 82.03 2.70 c p1
123.87 82.03 2.70 c p1
124.05 82.03 2.70 c p1
124.23 82.02 2.70 c p1
124.42 82.01 2.70 c p1
124.60 82.03 2.70 c p1
124.79 82.03 2.70 c p1
124.97 82.04 2.70 c p1
125.15 82.04 2.70 c p1
125.34 82.03 2.70 c p1
125.52 82.02 2.70 c p1
125.71 82.02 2.70 c p1
125.89 82.01 2.70 c p1
126.08 82.02 2.70 c p1
126.26 82.02 2.70 c p1
126.44 82.02 2.70 c p1
126.63 82.03 2.70 c p1
126.81 82.03 2.70 c p1
127.00 82.01 2.70 c p1
127.18 82.01 2.70 c p1
127.36 82.02 2.70 c p1
127.55 82.04 2.70 c p1
127.73 82.03 2.70 c p1
127.92 82.02 2.70 c p1
128.10 82.03 2.70 c p1
128.29 82.03 2.70 c p1
128.47 82.04 2.70 c p1
128.65 82.04 2.70 c p1
128.84 82.03 2.70 c p1
129.02 82.03 2.70 c p1
129.21 82.03 2.70 c p1
129.39 82.02 2.70 c p1
129.58 82.03 2.70 c p1
129.76 82.02 2.70 c p1
129.94 82.03 2.70 c p1
130.13 82.02 2.70 c p1
130.31 82.02 2.70 c p1
130.50 82.03 2.70 c p1
130.68 82.02 2.70 c p1
130.86 82.03 2.70 c p1
131.05 82.03 2.70 c p1
131.23 82.03 2.70 c p1
131.42 82.04 2.70 c p1
131.60 82.03 2.70 c p1
131.79 82.02 2.70 c p1
131.97 82.02 2.70 c p1
132.15 82.03 2.70 c p1
132.34 82.03 2.70 c p1
132.52 82.05 2.70 c p1
132.71 82.04 2.70 c p1
132.89 82.04 2.70 c p1
133.07 82.05 2.70 c p1
133.26 82.06 2.70 c p1
133.44 82.05 2.70 c p1
133.63 82.07 2.70 c p1
133.81 82.08 2.70 c p1
134.00 82.09 2.70 c p1
134.18 82.09 2.70 c p1
134.36 82.10 2.70 c p1
134.55 82.09 2.70 c p1
134.73 82.08 2.70 c p1
134.92 82.09 2.70 c p1
135.10 82.07 2.70 c p1
135.28 82.09 2.70 c p1
135.47 82.08 2.70 c p1
135.65 82.07 2.70 c p1
135.84 82.07 2.70 c p1
136.02 82.08 2.70 c p1
136.21 82.07 2.70 c p1
136.39 82.07 2.70 c p1
136.57 82.09 2.70 c p1
136.76 82.10 2.70 c p1
136.94 82.09 2.70 c p1
137.13 82.11 2.70 c p1
137.31 82.11 2.70 c p1
137.50 82.12 2.70 c p1
137.68 82.12 2.70 c p1
137.86 82.11 2.70 c p1
138.05 82.10 2.70 c p1
138.23 82.09 2.70 c p1
138.42 82.08 2.70 c p1
138.60 82.08 2.70 c p1
138.78 82.07 2.70 c p1
138.97 82.07 2.70 c p1
139.15 82.08 2.70 c p1
139.34 82.09 2.70 c p1
139.52 82.09 2.70 c p1
139.71 82.08 2.70 c p1
139.89 82.08 2.70 c p1
140.07 82.06 2.70 c p1
140.26 82.06 2.70 c p1
140.44 82.07 2.70 c p1
140.63 82.09 2.70 c p1
140.81 82.09 2.70 c p1
140.99 82.07 2.70 c p1
141.18 82.07 2.70 c p1
141.36 82.09 2.70 c p1
141.55 82.09 2.70 c p1
141.73 82.09 2.70 c p1
141.92 82.09 2.70 c p1
142.10 82.09 2.70 c p1
142.28 82.08 2.70 c p1
142.47 82.08 2.70 c p1
142.65 82.08 2.70 c p1
142.84 82.07 2.70 c p1
143.02 82.06 2.70 c p1
143.20 82.06 2.70 c p1
143.39 82.07 2.70 c p1
143.57 82.07 2.70 c p1
143.76 82.07 2.70 c p1
143.94 82.07 2.70 c p1
144.13 82.08 2.70 c p1
144.31 82.08 2.70 c p1
144.49 82.08 2.70 c p1
144.68 82.07 2.70 c p1
144.86 82.07 2.70 c p1
145.05 82.09 2.70 c p1
145.23 82.09 2.70 c p1
145.42 82.09 2.70 c p1
145.60 82.10 2.70 c p1
145.78 82.11 2.70 c p1
145.97 82.11 2.70 c p1
146.15 82.11 2.70 c p1
146.34 82.12 2.70 c p1
146.52 82.13 2.70 c p1
146.70 82.13 2.70 c p1
146.89 82.14 2.70 c p1
147.07 82.13 2.70 c p1
147.26 82.12 2.70 c p1
147.44 82.13 2.70 c p1
147.63 82.12 2.70 c p1
147.81 82.13 2.70 c p1
147.99 82.13 2.70 c p1
148.18 82.13 2.70 c p1
148.36 82.13 2.70 c p1
148.55 82.15 2.70 c p1
148.73 82.15 2.70 c p1
148.91 82.15 2.70 c p1
149.10 82.15 2.70 c p1
149.28 82.15 2.70 c p1
149.47 82.13 2.70 c p1
149.65 82.14 2.70 c p1
149.84 82.13 2.70 c p1
150.02 82.12 2.70 c p1
150.20 82.15 2.70 c p1
150.39 82.16 2.70 c p1
150.57 82.15 2.70 c p1
150.76 82.15 2.70 c p1
150.94 82.14 2.70 c p1
151.12 82.13 2.70 c p1
151.31 82.13 2.70 c p1
151.49 82.12 2.70 c p1
151.68 82.13 2.70 c p1
151.86 82.13 2.70 c p1
152.05 82.14 2.70 c p1
152.23 82.13 2.70 c p1
152.41 82.13 2.70 c p1
152.60 82.11 2.70 c p1
152.78 82.12 2.70 c p1
152.97 82.12 2.70 c p1
153.15 82.12 2.70 c p1
153.33 82.12 2.70 c p1
153.52 82.12 2.70 c p1
153.70 82.12 2.70 c p1
153.89 82.13 2.70 c p1
154.07 82.14 2.70 c p1
154.26 82.13 2.70 c p1
154.44 82.12 2.70 c p1
154.62 82.12 2.70 c p1
154.81 82.11 2.70 c p1
154.99 82.10 2.70 c p1
155.18 82.11 2.70 c p1
155.36 82.09 2.70 c p1
155.55 82.09 2.70 c p1
155.73 82.09 2.70 c p1
155.91 82.08 2.70 c p1
156.10 82.08 2.70 c p1
156.28 82.08 2.70 c p1
156.47 82.08 2.70 c p1
156.65 82.09 2.70 c p1
156.83 82.07 2.70 c p1
157.02 82.07 2.70 c p1
157.20 82.08 2.70 c p1
157.39 82.08 2.70 c p1
157.57 82.07 2.70 c p1
157.76 82.07 2.70 c p1
157.94 82.07 2.70 c p1
158.12 82.08 2.70 c p1
158.31 82.07 2.70 c p1
158.49 82.06 2.70 c p1
158.68 82.05 2.70 c p1
158.86 82.06 2.70 c p1
159.04 82.06 2.70 c p1
159.23 82.06 2.70 c p1
159.41 82.05 2.70 c p1
159.60 82.06 2.70 c p1
159.78 82.05 2.70 c p1
159.97 82.04 2.70 c p1
160.15 82.02 2.70 c p1
160.33 82.03 2.70 c p1
160.52 82.02 2.70 c p1
160.70 82.01 2.70 c p1
160.89 82.02 2.70 c p1
161.07 82.02 2.70 c p1
161.25 82.00 2.70 c p1
161.44 82.01 2.70 c p1
161.62 82.00 2.70 c p1
161.81 82.01 2.70 c p1
161.99 82.01 2.70 c p1
162.18 82.01 2.70 c p1
162.36 82.00 2.70 c p1
162.54 81.99 2.70 c p1
162.73 82.00 2.70 c p1
162.91 82.01 2.70 c p1
163.10 82.00 2.70 c p1
163.28 82.00 2.70 c p1
163.47 82.01 2.70 c p1
163.65 82.01 2.70 c p1
163.83 82.02 2.70 c p1
164.02 82.02 2.70 c p1
164.20 82.02 2.70 c p1
164.39 82.03 2.70 c p1
164.57 82.03 2.70 c p1
164.75 82.02 2.70 c p1
164.94 82.02 2.70 c p1
165.12 82.03 2.70 c p1
165.31 82.03 2.70 c p1
165.49 82.02 2.70 c p1
165.68 82.02 2.70 c p1
165.86 82.03 2.70 c p1
166.04 82.04 2.70 c p1
166.23 82.03 2.70 c p1
166.41 82.04 2.70 c p1
166.60 82.04 2.70 c p1
166.78 82.04 2.70 c p1
166.96 82.03 2.70 c p1
167.15 82.04 2.70 c p1
167.33 82.03 2.70 c p1
167.52 82.02 2.70 c p1
167.70 82.02 2.70 c p1
167.89 82.03 2.70 c p1
168.07 82.03 2.70 c p1
168.25 82.03 2.70 c p1
168.44 82.04 2.70 c p1
168.62 82.04 2.70 c p1
168.81 82.04 2.70 c p1
168.99 82.05 2.70 c p1
169.17 82.06 2.70 c p1
169.36 82.07 2.70 c p1
169.54 82.06 2.70 c p1
169.73 82.05 2.70 c p1
169.91 82.06 2.70 c p1
170.10 82.04 2.70 c p1
170.28 82.05 2.70 c p1
170.46 82.05 2.70 c p1
170.65 82.05 2.70 c p1
170.83 82.06 2.70 c p1
171.02 82.05 2.70 c p1
171.20 82.06 2.70 c p1
171.38 82.07 2.70 c p1
171.57 82.07 2.70 c p1
171.75 82.06 2.70 c p1
171.94 82.06 2.70 c p1
172.12 82.06 2.70 c p1
172.31 82.06 2.70 c p1
172.49 82.06 2.70 c p1
172.67 82.06 2.70 c p1
172.86 82.08 2.70 c p1
173.04 82.06 2.70 c p1
173.23 82.06 2.70 c p1
173.41 82.07 2.70 c p1
173.60 82.07 2.70 c p1
173.78 82.06 2.70 c p1
173.96 82.06 2.70 c p1
174.15 82.05 2.70 c p1
174.33 82.05 2.70 c p1
174.52 82.05 2.70 c p1
174.70 82.05 2.70 c p1
174.88 82.06 2.70 c p1
175.07 82.08 2.70 c p1
175.25 82.08 2.70 c p1
175.44 82.08 2.70 c p1
175.62 82.08 2.70 c p1
175.81 82.08 2.70 c p1
175.99 82.08 2.70 c p1
176.17 82.08 2.70 c p1
176.36 82.08 2.70 c p1
176.54 82.09 2.70 c p1
176.73 82.08 2.70 c p1
176.91 82.09 2.70 c p1
177.09 82.08 2.70 c p1
177.28 82.07 2.70 c p1
177.46 82.08 2.70 c p1
177.65 82.08 2.70 c p1
177.83 82.09 2.70 c p1
178.02 82.08 2.70 c p1
178.20 82.08 2.70 c p1
178.38 82.08 2.70 c p1
178.57 82.07 2.70 c p1
178.75 82.07 2.70 c p1
178.94 82.07 2.70 c p1
179.12 82.07 2.70 c p1
179.30 82.07 2.70 c p1
179.49 82.07 2.70 c p1
179.67 82.07 2.70 c p1
179.86 82.08 2.70 c p1
180.04 82.08 2.70 c p1
180.23 82.09 2.70 c p1
180.41 82.09 2.70 c p1
180.59 82.08 2.70 c p1
180.78 82.09 2.70 c p1
180.96 82.08 2.70 c p1
181.15 82.09 2.70 c p1
181.33 82.07 2.70 c p1
181.52 82.08 2.70 c p1
181.70 82.08 2.70 c p1
181.88 82.07 2.70 c p1
182.07 82.07 2.70 c p1
182.25 82.07 2.70 c p1
182.44 82.07 2.70 c p1
182.62 82.08 2.70 c p1
182.80 82.08 2.70 c p1
182.99 82.08 2.70 c p1
183.17 82.08 2.70 c p1
183.36 82.09 2.70 c p1
183.54 82.09 2.70 c p1
183.73 82.09 2.70 c p1
183.91 82.10 2.70 c p1
184.09 82.10 2.70 c p1
184.28 82.09 2.70 c p1
184.46 82.09 2.70 c p1
184.65 82.10 2.70 c p1
184.83 82.10 2.70 c p1
185.01 82.10 2.70 c p1
185.20 82.11 2.70 c p1
185.38 82.11 2.70 c p1
185.57 82.11 2.70 c p1
185.75 82.11 2.70 c p1
185.94 82.11 2.70 c p1
186.12 82.10 2.70 c p1
186.30 82.10 2.70 c p1
186.49 82.09 2.70 c p1
186.67 82.09 2.70 c p1
186.86 82.10 2.70 c p1
187.04 82.09 2.70 c p1
187.22 82.10 2.70 c p1
187.41 82.10 2.70 c p1
187.59 82.09 2.70 c p1
187.78 82.09 2.70 c p1
187.96 82.09 2.70 c p1
188.15 82.08 2.70 c p1
188.33 82.08 2.70 c p1
188.51 82.09 2.70 c p1
188.70 82.09 2.70 c p1
188.88 82.08 2.70 c p1
189.07 82.08 2.70 c p1
189.25 82.07 2.70 c p1
189.44 82.06 2.70 c p1
189.62 82.05 2.70 c p1
189.80 82.05 2.70 c p1
189.99 82.05 2.70 c p1
190.17 82.04 2.70 c p1
190.36 82.04 2.70 c p1
190.54 82.04 2.70 c p1
190.72 82.03 2.70 c p1
190.91 82.03 2.70 c p1
191.09 82.03 2.70 c p1
191.28 82.04 2.70 c p1
191.46 82.03 2.70 c p1
191.65 82.03 2.70 c p1
191.83 82.04 2.70 c p1
192.01 82.04 2.70 c p1
192.20 82.05 2.70 c p1
192.38 82.05 2.70 c p1
192.57 82.05 2.70 c p1
192.75 82.05 2.70 c p1
192.93 82.05 2.70 c p1
193.12 82.05 2.70 c p1
193.30 82.03 2.70 c p1
193.49 82.04 2.70 c p1
193.67 82.05 2.70 c p1
193.86 82.06 2.70 c p1
194.04 82.06 2.70 c p1
194.22 82.05 2.70 c p1
194.41 82.06 2.70 c p1
194.59 82.06 2.70 c p1
194.78 82.06 2.70 c p1
194.96 82.06 2.70 c p1
195.14 82.07 2.70 c p1
195.33 82.07 2.70 c p1
195.51 82.06 2.70 c p1
195.70 82.06 2.70 c p1
195.88 82.05 2.70 c p1
196.07 82.05 2.70 c p1
196.25 82.06 2.70 c p1
196.43 82.06 2.70 c p1
196.62 82.06 2.70 c p1
196.80 82.05 2.70 c p1
196.99 82.05 2.70 c p1
197.17 82.05 2.70 c p1
197.35 82.05 2.70 c p1
197.54 82.05 2.70 c p1
197.72 82.06 2.70 c p1
197.91 82.06 2.70 c p1
198.09 82.05 2.70 c p1
198.28 82.05 2.70 c p1
198.46 82.05 2.70 c p1
198.64 82.04 2.70 c p1
198.83 82.05 2.70 c p1
199.01 82.05 2.70 c p1
199.20 82.05 2.70 c p1
199.38 82.05 2.70 c p1
199.57 82.05 2.70 c p1
199.75 82.05 2.70 c p1
199.93 82.05 2.70 c p1
200.12 82.04 2.70 c p1
200.30 82.04 2.70 c p1
200.49 82.05 2.70 c p1
200.67 82.05 2.70 c p1
200.85 82.04 2.70 c p1
201.04 82.04 2.70 c p1
201.22 82.03 2.70 c p1
201.41 82.03 2.70 c p1
201.59 82.03 2.70 c p1
201.78 82.03 2.70 c p1
201.96 82.04 2.70 c p1
202.14 82.04 2.70 c p1
202.33 82.04 2.70 c p1
202.51 82.04 2.70 c p1
202.70 82.04 2.70 c p1
202.88 82.04 2.70 c p1
203.06 82.04 2.70 c p1
203.25 82.04 2.70 c p1
203.43 82.05 2.70 c p1
203.62 82.05 2.70 c p1
203.80 82.05 2.70 c p1
203.99 82.05 2.70 c p1
204.17 82.05 2.70 c p1
204.35 82.05 2.70 c p1
204.54 82.06 2.70 c p1
204.72 82.06 2.70 c p1
204.91 82.06 2.70 c p1
205.09 82.08 2.70 c p1
205.27 82.08 2.70 c p1
205.46 82.08 2.70 c p1
205.64 82.08 2.70 c p1
205.83 82.09 2.70 c p1
206.01 82.10 2.70 c p1
206.20 82.10 2.70 c p1
206.38 82.11 2.70 c p1
206.56 82.11 2.70 c p1
206.75 82.11 2.70 c p1
206.93 82.12 2.70 c p1
207.12 82.11 2.70 c p1
207.30 82.12 2.70 c p1
207.49 82.12 2.70 c p1
207.67 82.12 2.70 c p1
207.85 82.13 2.70 c p1
208.04 82.12 2.70 c p1
208.22 82.12 2.70 c p1
208.41 82.12 2.70 c p1
208.59 82.13 2.70 c p1
208.77 82.13 2.70 c p1
208.96 82.13 2.70 c p1
209.14 82.13 2.70 c p1
209.33 82.13 2.70 c p1
209.51 82.13 2.70 c p1
209.70 82.13 2.70 c p1
209.88 82.13 2.70 c p1
210.06 82.13 2.70 c p1
210.25 82.14 2.70 c p1
210.43 82.14 2.70 c p1
210.62 82.13 2.70 c p1
210.80 82.13 2.70 c p1
210.98 82.13 2.70 c p1
211.17 82.14 2.70 c p1
211.35 82.14 2.70 c p1
211.54 82.13 2.70 c p1
211.72 82.13 2.70 c p1
211.91 82.13 2.70 c p1
212.09 82.14 2.70 c p1
212.27 82.14 2.70 c p1
212.46 82.14 2.70 c p1
212.64 82.14 2.70 c p1
212.83 82.15 2.70 c p1
213.01 82.16 2.70 c p1
213.19 82.16 2.70 c p1
213.38 82.16 2.70 c p1
213.56 82.17 2.70 c p1
213.75 82.17 2.70 c p1
213.93 82.17 2.70 c p1
214.12 82.16 2.70 c p1
214.30 82.16 2.70 c p1
214.48 82.16 2.70 c p1
214.67 82.16 2.70 c p1
214.85 82.16 2.70 c p1
215.04 82.16 2.70 c p1
215.22 82.17 2.70 c p1
215.41 82.16 2.70 c p1
215.59 82.17 2.70 c p1
215.77 82.16 2.70 c p1
215.96 82.16 2.70 c p1
216.14 82.16 2.70 c p1
216.33 82.16 2.70 c p1
216.51 82.16 2.70 c p1
216.69 82.16 2.70 c p1
216.88 82.15 2.70 c p1
217.06 82.15 2.70 c p1
217.25 82.15 2.70 c p1
217.43 82.14 2.70 c p1
217.62 82.14 2.70 c p1
217.80 82.15 2.70 c p1
217.98 82.15 2.70 c p1
218.17 82.15 2.70 c p1
218.35 82.15 2.70 c p1
218.54 82.16 2.70 c p1
218.72 82.16 2.70 c p1
218.90 82.17 2.70 c p1
219.09 82.17 2.70 c p1
219.27 82.17 2.70 c p1
219.46 82.18 2.70 c p1
219.64 82.18 2.70 c p1
219.83 82.18 2.70 c p1
220.01 82.18 2.70 c p1
220.19 82.17 2.70 c p1
220.38 82.17 2.70 c p1
220.56 82.17 2.70 c p1
220.75 82.17 2.70 c p1
220.93 82.18 2.70 c p1
221.11 82.18 2.70 c p1
221.30 82.19 2.70 c p1
221.48 82.20 2.70 c p1
221.67 82.19 2.70 c p1
221.85 82.19 2.70 c p1
222.04 82.19 2.70 c p1
222.22 82.19 2.70 c p1
222.40 82.19 2.70 c p1
222.59 82.19 2.70 c p1
222.77 82.19 2.70 c p1
222.96 82.19 2.70 c p1
223.14 82.20 2.70 c p1
223.32 82.20 2.70 c p1
223.51 82.20 2.70 c p1
223.69 82.21 2.70 c p1
223.88 82.21 2.70 c p1
224.06 82.21 2.70 c p1
224.25 82.21 2.70 c p1
224.43 82.21 2.70 c p1
224.61 82.21 2.70 c p1
224.80 82.22 2.70 c p1
224.98 82.22 2.70 c p1
225.17 82.22 2.70 c p1
225.35 82.22 2.70 c p1
225.54 82.22 2.70 c p1
225.72 82.21 2.70 c p1
225.90 82.21 2.70 c p1
226.09 82.22 2.70 c p1
226.27 82.22 2.70 c p1
226.46 82.22 2.70 c p1
226.64 82.22 2.70 c p1
226.82 82.22 2.70 c p1
227.01 82.22 2.70 c p1
227.19 82.23 2.70 c p1
227.38 82.23 2.70 c p1
227.56 82.23 2.70 c p1
227.75 82.23 2.70 c p1
227.93 82.23 2.70 c p1
228.11 82.22 2.70 c p1
228.30 82.22 2.70 c p1
228.48 82.22 2.70 c p1
228.67 82.22 2.70 c p1
228.85 82.22 2.70 c p1
229.03 82.21 2.70 c p1
229.22 82.21 2.70 c p1
229.40 82.21 2.70 c p1
229.59 82.21 2.70 c p1
229.77 82.21 2.70 c p1
229.96 82.21 2.70 c p1
230.14 82.21 2.70 c p1
230.32 82.21 2.70 c p1
230.51 82.20 2.70 c p1
230.69 82.20 2.70 c p1
230.88 82.20 2.70 c p1
231.06 82.20 2.70 c p1
231.24 82.20 2.70 c p1
231.43 82.20 2.70 c p1
231.61 82.21 2.70 c p1
231.80 82.20 2.70 c p1
231.98 82.20 2.70 c p1
232.17 82.20 2.70 c p1
232.35 82.19 2.70 c p1
232.53 82.19 2.70 c p1
232.72 82.19 2.70 c p1
232.90 82.19 2.70 c p1
233.09 82.19 2.70 c p1
233.27 82.20 2.70 c p1
233.46 82.20 2.70 c p1
233.64 82.20 2.70 c p1
233.82 82.20 2.70 c p1
234.01 82.20 2.70 c p1
234.19 82.20 2.70 c p1
234.38 82.19 2.70 c p1
234.56 82.19 2.70 c p1
234.74 82.19 2.70 c p1
234.93 82.19 2.70 c p1
235.11 82.19 2.70 c p1
235.30 82.19 2.70 c p1
235.48 82.19 2.70 c p1
235.67 82.19 2.70 c p1
235.85 82.19 2.70 c p1
236.03 82.19 2.70 c p1
236.22 82.19 2.70 c p1
236.40 82.20 2.70 c p1
236.59 82.20 2.70 c p1
236.77 82.20 2.70 c p1
236.95 82.21 2.70 c p1
237.14 82.19 2.70 c p1
237.32 82.20 2.70 c p1
237.51 82.20 2.70 c p1
237.69 82.20 2.70 c p1
237.88 82.20 2.70 c p1
238.06 82.20 2.70 c p1
238.24 82.20 2.70 c p1
238.43 82.20 2.70 c p1
238.61 82.20 2.70 c p1
238.80 82.21 2.70 c p1
238.98 82.21 2.70 c p1
239.16 82.21 2.70 c p1
239.35 82.21 2.70 c p1
239.53 82.20 2.70 c p1
239.72 82.20 2.70 c p1
239.90 82.20 2.70 c p1
240.09 82.20 2.70 c p1
240.27 82.20 2.70 c p1
240.45 82.20 2.70 c p1
240.64 82.20 2.70 c p1
240.82 82.20 2.70 c p1
241.01 82.19 2.70 c p1
241.19 82.20 2.70 c p1
241.37 82.20 2.70 c p1
241.56 82.20 2.70 c p1
241.74 82.21 2.70 c p1
241.93 82.21 2.70 c p1
242.11 82.21 2.70 c p1
242.30 82.22 2.70 c p1
242.48 82.22 2.70 c p1
242.66 82.22 2.70 c p1
242.85 82.21 2.70 c p1
243.03 82.22 2.70 c p1
243.22 82.21 2.70 c p1
243.40 82.21 2.70 c p1
243.59 82.21 2.70 c p1
243.77 82.21 2.70 c p1
243.95 82.21 2.70 c p1
244.14 82.21 2.70 c p1
244.32 82.21 2.70 c p1
244.51 82.21 2.70 c p1
244.69 82.21 2.70 c p1
244.87 82.21 2.70 c p1
245.06 82.21 2.70 c p1
245.24 82.21 2.70 c p1
245.43 82.21 2.70 c p1
245.61 82.21 2.70 c p1
245.80 82.21 2.70 c p1
245.98 82.21 2.70 c p1
246.16 82.22 2.70 c p1
246.35 82.22 2.70 c p1
246.53 82.22 2.70 c p1
246.72 82.22 2.70 c p1
246.90 82.22 2.70 c p1
247.08 82.21 2.70 c p1
247.27 82.22 2.70 c p1
247.45 82.21 2.70 c p1
247.64 82.21 2.70 c p1
247.82 82.21 2.70 c p1
248.01 82.21 2.70 c p1
248.19 82.22 2.70 c p1
248.37 82.22 2.70 c p1
248.56 82.22 2.70 c p1
248.74 82.22 2.70 c p1
248.93 82.22 2.70 c p1
249.11 82.21 2.70 c p1
249.29 82.21 2.70 c p1
249.48 82.21 2.70 c p1
249.66 82.21 2.70 c p1
249.85 82.21 2.70 c p1
250.03 82.21 2.70 c p1
250.22 82.21 2.70 c p1
250.40 82.20 2.70 c p1
0.00 0.00 288.00 288.00 cl
0 0 0 srgb
0.75 setlinewidth
[] 0 setdash
1 setlinecap
1 setlinejoin
10.00 setmiterlimit
np
66.22 73.44 m
184.18 0 l
o
np
66.22 73.44 m
0 -7.20 l
o
np
103.05 73.44 m
0 -7.20 l
o
np
139.89 73.44 m
0 -7.20 l
o
np
176.73 73.44 m
0 -7.20 l
o
np
213.56 73.44 m
0 -7.20 l
o
np
250.40 73.44 m
0 -7.20 l
o
/Font1 findfont 12 s
66.22 47.52 (0) .5 0 t
103.05 47.52 (200) .5 0 t
139.89 47.52 (400) .5 0 t
176.73 47.52 (600) .5 0 t
213.56 47.52 (800) .5 0 t
250.40 47.52 (1000) .5 0 t
np
59.04 74.12 m
0 149.05 l
o
np
59.04 74.12 m
-7.20 0 l
o
np
59.04 103.93 m
-7.20 0 l
o
np
59.04 133.74 m
-7.20 0 l
o
np
59.04 163.55 m
-7.20 0 l
o
np
59.04 193.36 m
-7.20 0 l
o
np
59.04 223.17 m
-7.20 0 l
o
41.76 74.12 (-5000) .5 90 t
41.76 133.74 (-3000) .5 90 t
41.76 193.36 (-1000) .5 90 t
np
59.04 73.44 m
198.72 0 l
0 155.52 l
-198.72 0 l
0 -155.52 l
o
0.00 0.00 288.00 288.00 cl
/Font1 findfont 12 s
0 0 0 srgb
124.72 18.72 (Sample Siz) 0 ta
-0.180 (e) tb gr
12.96 85.85 (Mean of Null Distr) 90 ta
0.180 (ib) tb
-0.240 (ution) tb gr
ep
%%Trailer
%%Pages: 1
%%EOF
